# Blender v2.77 (sub 0) OBJ File: ''
# www.blender.org
mtllib title_ember.mtl
o Text
v 2.624621 0.661556 0.086000
v 2.653814 0.657382 0.086000
v 2.680457 0.650611 0.086000
v 2.704463 0.641401 0.086000
v 2.725780 0.629906 0.086000
v 2.744385 0.616257 0.086000
v 2.760283 0.600541 0.086000
v 2.773477 0.582794 0.086000
v 2.783945 0.563000 0.086000
v 2.791611 0.541117 0.086000
v 2.796343 0.517110 0.086000
v 2.797974 0.490828 0.086000
v 2.797208 0.473381 0.086000
v 2.794926 0.456706 0.086000
v 2.791192 0.440990 0.086000
v 2.786052 0.426229 0.086000
v 2.779542 0.412408 0.086000
v 2.771683 0.399511 0.086000
v 2.762480 0.387526 0.086000
v 2.751926 0.376451 0.086000
v 2.740009 0.366296 0.086000
v 2.726716 0.357087 0.086000
v 2.712036 0.348862 0.086000
v 2.664956 0.327786 0.086000
v 2.706465 0.298197 0.086000
v 2.719646 0.287371 0.086000
v 2.732215 0.275623 0.086000
v 2.744310 0.262919 0.086000
v 2.756061 0.249232 0.086000
v 2.767590 0.234542 0.086000
v 2.779017 0.218836 0.086000
v 2.790461 0.202110 0.086000
v 2.802039 0.184364 0.086000
v 2.813874 0.165605 0.086000
v 2.826086 0.145838 0.086000
v 2.838832 0.125020 0.086000
v 2.845936 0.113604 0.086000
v 2.852698 0.102941 0.086000
v 2.859262 0.092808 0.086000
v 2.865767 0.082986 0.086000
v 2.872351 0.073256 0.086000
v 2.879154 0.063398 0.086000
v 2.886316 0.053190 0.086000
v 2.893981 0.042405 0.086000
v 2.902293 0.030813 0.086000
v 2.911402 0.018182 0.086000
v 2.921455 0.004279 0.086000
v 2.910806 0.019000 0.086000
v 2.841373 0.019000 0.086000
v 2.756912 0.150384 0.086000
v 2.735156 0.183230 0.086000
v 2.715075 0.211493 0.086000
v 2.696492 0.235472 0.086000
v 2.679154 0.255561 0.086000
v 2.662790 0.272142 0.086000
v 2.647124 0.285561 0.086000
v 2.631903 0.296114 0.086000
v 2.616954 0.304033 0.086000
v 2.602232 0.309536 0.086000
v 2.587807 0.312910 0.086000
v 2.573767 0.314568 0.086000
v 2.560305 0.315000 0.086000
v 2.500000 0.315000 0.086000
v 2.500000 0.019000 0.086000
v 2.440000 0.019000 0.086000
v 2.440000 0.663000 0.086000
v 2.592572 0.663000 0.086000
v 2.582421 0.365000 0.086000
v 2.608508 0.366156 0.086000
v 2.632293 0.369623 0.086000
v 2.653517 0.375303 0.086000
v 2.672258 0.383124 0.086000
v 2.688523 0.392978 0.086000
v 2.702263 0.404677 0.086000
v 2.713435 0.417927 0.086000
v 2.722075 0.432359 0.086000
v 2.728320 0.447598 0.086000
v 2.732391 0.463324 0.086000
v 2.734541 0.479287 0.086000
v 2.735019 0.495351 0.086000
v 2.733852 0.512829 0.086000
v 2.730781 0.529539 0.086000
v 2.725615 0.545359 0.086000
v 2.718192 0.560089 0.086000
v 2.708438 0.573457 0.086000
v 2.696400 0.585189 0.086000
v 2.682219 0.595094 0.086000
v 2.666043 0.603104 0.086000
v 2.647959 0.609246 0.086000
v 2.627971 0.613578 0.086000
v 2.606023 0.616156 0.086000
v 2.582338 0.617000 0.086000
v 2.500000 0.617000 0.086000
v 2.500000 0.365000 0.086000
v 1.998000 0.613000 0.086000
v 1.998000 0.369000 0.086000
v 2.277000 0.369000 0.086000
v 2.277000 0.319000 0.086000
v 1.998000 0.319000 0.086000
v 1.998000 0.069000 0.086000
v 2.296000 0.069000 0.086000
v 2.296000 0.019000 0.086000
v 1.938000 0.019000 0.086000
v 1.938000 0.663000 0.086000
v 2.287000 0.663000 0.086000
v 2.287000 0.613000 0.086000
v 1.553517 0.663000 0.086000
v 1.586999 0.661297 0.086000
v 1.616414 0.656514 0.086000
v 1.642353 0.649001 0.086000
v 1.664967 0.639115 0.086000
v 1.684436 0.627185 0.086000
v 1.700941 0.613500 0.086000
v 1.714653 0.598310 0.086000
v 1.725708 0.581845 0.086000
v 1.734205 0.564330 0.086000
v 1.740214 0.546004 0.086000
v 1.743785 0.527130 0.086000
v 1.744977 0.507795 0.086000
v 1.744358 0.492359 0.086000
v 1.742500 0.477887 0.086000
v 1.739441 0.464545 0.086000
v 1.735202 0.452244 0.086000
v 1.729778 0.440870 0.086000
v 1.723129 0.430300 0.086000
v 1.715182 0.420420 0.086000
v 1.705840 0.411149 0.086000
v 1.695005 0.402438 0.086000
v 1.682591 0.394272 0.086000
v 1.668534 0.386653 0.086000
v 1.641000 0.374301 0.086000
v 1.641000 0.344913 0.086000
v 1.679479 0.335960 0.086000
v 1.700636 0.328889 0.086000
v 1.719925 0.320204 0.086000
v 1.737306 0.310010 0.086000
v 1.752753 0.298406 0.086000
v 1.766251 0.285474 0.086000
v 1.777790 0.271274 0.086000
v 1.787356 0.255843 0.086000
v 1.794921 0.239194 0.086000
v 1.800433 0.221332 0.086000
v 1.803816 0.202259 0.086000
v 1.804966 0.182058 0.086000
v 1.803775 0.163175 0.086000
v 1.800119 0.144164 0.086000
v 1.793863 0.125348 0.086000
v 1.784875 0.107070 0.086000
v 1.773005 0.089645 0.086000
v 1.758065 0.073369 0.086000
v 1.739827 0.058542 0.086000
v 1.718028 0.045491 0.086000
v 1.692393 0.034588 0.086000
v 1.662657 0.026245 0.086000
v 1.628587 0.020905 0.086000
v 1.589537 0.019000 0.086000
v 1.375000 0.019000 0.086000
v 1.375000 0.663000 0.086000
v 1.519307 0.371000 0.086000
v 1.543526 0.371783 0.086000
v 1.566198 0.374201 0.086000
v 1.587083 0.378319 0.086000
v 1.606200 0.384239 0.086000
v 1.623520 0.392084 0.086000
v 1.638929 0.401963 0.086000
v 1.652227 0.413916 0.086000
v 1.663179 0.427851 0.086000
v 1.671614 0.443549 0.086000
v 1.677498 0.460749 0.086000
v 1.680922 0.479250 0.086000
v 1.682027 0.498937 0.086000
v 1.681303 0.513556 0.086000
v 1.679011 0.527909 0.086000
v 1.674938 0.541934 0.086000
v 1.668883 0.555410 0.086000
v 1.660691 0.568048 0.086000
v 1.650298 0.579522 0.086000
v 1.637731 0.589539 0.086000
v 1.623075 0.597886 0.086000
v 1.606397 0.604451 0.086000
v 1.587708 0.609182 0.086000
v 1.566952 0.612050 0.086000
v 1.544400 0.613000 0.086000
v 1.435000 0.613000 0.086000
v 1.435000 0.371000 0.086000
v 1.577404 0.069000 0.086000
v 1.605751 0.070207 0.086000
v 1.631415 0.073786 0.086000
v 1.654186 0.079589 0.086000
v 1.674192 0.087489 0.086000
v 1.691497 0.097337 0.086000
v 1.706116 0.108927 0.086000
v 1.718052 0.121964 0.086000
v 1.727358 0.136075 0.086000
v 1.734172 0.150867 0.086000
v 1.738713 0.165973 0.086000
v 1.741241 0.181088 0.086000
v 1.742033 0.196130 0.086000
v 1.740864 0.213725 0.086000
v 1.737248 0.230763 0.086000
v 1.731099 0.246921 0.086000
v 1.722390 0.261925 0.086000
v 1.711185 0.275506 0.086000
v 1.697613 0.287450 0.086000
v 1.681824 0.297631 0.086000
v 1.663933 0.305994 0.086000
v 1.644006 0.312525 0.086000
v 1.622059 0.317218 0.086000
v 1.598075 0.320057 0.086000
v 1.572348 0.321000 0.086000
v 1.435000 0.321000 0.086000
v 1.435000 0.069000 0.086000
v 1.130000 0.019000 0.086000
v 1.130000 0.550000 0.086000
v 1.099836 0.550000 0.086000
v 0.889836 0.286000 0.086000
v 0.892164 0.286000 0.086000
v 0.682164 0.550000 0.086000
v 0.652000 0.550000 0.086000
v 0.652000 0.019000 0.086000
v 0.592000 0.019000 0.086000
v 0.592000 0.663000 0.086000
v 0.655919 0.663000 0.086000
v 0.890967 0.371789 0.086000
v 1.127056 0.663000 0.086000
v 1.190000 0.663000 0.086000
v 1.190000 0.019000 0.086000
v 0.154000 0.613000 0.086000
v 0.154000 0.369000 0.086000
v 0.433000 0.369000 0.086000
v 0.433000 0.319000 0.086000
v 0.154000 0.319000 0.086000
v 0.154000 0.069000 0.086000
v 0.452000 0.069000 0.086000
v 0.452000 0.019000 0.086000
v 0.094000 0.019000 0.086000
v 0.094000 0.663000 0.086000
v 0.443000 0.663000 0.086000
v 0.443000 0.613000 0.086000
v 2.624621 0.661556 -0.086000
v 2.653814 0.657382 -0.086000
v 2.680457 0.650611 -0.086000
v 2.704463 0.641401 -0.086000
v 2.725780 0.629906 -0.086000
v 2.744385 0.616257 -0.086000
v 2.760283 0.600541 -0.086000
v 2.773477 0.582794 -0.086000
v 2.783945 0.563000 -0.086000
v 2.791611 0.541117 -0.086000
v 2.796343 0.517110 -0.086000
v 2.797974 0.490828 -0.086000
v 2.797208 0.473381 -0.086000
v 2.794926 0.456706 -0.086000
v 2.791192 0.440990 -0.086000
v 2.786052 0.426229 -0.086000
v 2.779542 0.412408 -0.086000
v 2.771683 0.399511 -0.086000
v 2.762480 0.387526 -0.086000
v 2.751926 0.376451 -0.086000
v 2.740009 0.366296 -0.086000
v 2.726716 0.357087 -0.086000
v 2.712036 0.348862 -0.086000
v 2.664956 0.327786 -0.086000
v 2.706465 0.298197 -0.086000
v 2.719646 0.287371 -0.086000
v 2.732215 0.275623 -0.086000
v 2.744310 0.262919 -0.086000
v 2.756061 0.249232 -0.086000
v 2.767590 0.234542 -0.086000
v 2.779017 0.218836 -0.086000
v 2.790461 0.202110 -0.086000
v 2.802039 0.184364 -0.086000
v 2.813874 0.165605 -0.086000
v 2.826086 0.145838 -0.086000
v 2.838832 0.125020 -0.086000
v 2.845936 0.113604 -0.086000
v 2.852698 0.102941 -0.086000
v 2.859262 0.092808 -0.086000
v 2.865767 0.082986 -0.086000
v 2.872351 0.073256 -0.086000
v 2.879154 0.063398 -0.086000
v 2.886316 0.053190 -0.086000
v 2.893981 0.042405 -0.086000
v 2.902293 0.030813 -0.086000
v 2.911402 0.018182 -0.086000
v 2.921455 0.004279 -0.086000
v 2.910806 0.019000 -0.086000
v 2.841373 0.019000 -0.086000
v 2.756912 0.150384 -0.086000
v 2.735156 0.183230 -0.086000
v 2.715075 0.211493 -0.086000
v 2.696492 0.235472 -0.086000
v 2.679154 0.255561 -0.086000
v 2.662790 0.272142 -0.086000
v 2.647124 0.285561 -0.086000
v 2.631903 0.296114 -0.086000
v 2.616954 0.304033 -0.086000
v 2.602232 0.309536 -0.086000
v 2.587807 0.312910 -0.086000
v 2.573767 0.314568 -0.086000
v 2.560305 0.315000 -0.086000
v 2.500000 0.315000 -0.086000
v 2.500000 0.019000 -0.086000
v 2.440000 0.019000 -0.086000
v 2.440000 0.663000 -0.086000
v 2.592572 0.663000 -0.086000
v 2.582421 0.365000 -0.086000
v 2.608508 0.366156 -0.086000
v 2.632293 0.369623 -0.086000
v 2.653517 0.375303 -0.086000
v 2.672258 0.383124 -0.086000
v 2.688523 0.392978 -0.086000
v 2.702263 0.404677 -0.086000
v 2.713435 0.417927 -0.086000
v 2.722075 0.432359 -0.086000
v 2.728320 0.447598 -0.086000
v 2.732391 0.463324 -0.086000
v 2.734541 0.479287 -0.086000
v 2.735019 0.495351 -0.086000
v 2.733852 0.512829 -0.086000
v 2.730781 0.529539 -0.086000
v 2.725615 0.545359 -0.086000
v 2.718192 0.560089 -0.086000
v 2.708438 0.573457 -0.086000
v 2.696400 0.585189 -0.086000
v 2.682219 0.595094 -0.086000
v 2.666043 0.603104 -0.086000
v 2.647959 0.609246 -0.086000
v 2.627971 0.613578 -0.086000
v 2.606023 0.616156 -0.086000
v 2.582338 0.617000 -0.086000
v 2.500000 0.617000 -0.086000
v 2.500000 0.365000 -0.086000
v 1.998000 0.613000 -0.086000
v 1.998000 0.369000 -0.086000
v 2.277000 0.369000 -0.086000
v 2.277000 0.319000 -0.086000
v 1.998000 0.319000 -0.086000
v 1.998000 0.069000 -0.086000
v 2.296000 0.069000 -0.086000
v 2.296000 0.019000 -0.086000
v 1.938000 0.019000 -0.086000
v 1.938000 0.663000 -0.086000
v 2.287000 0.663000 -0.086000
v 2.287000 0.613000 -0.086000
v 1.553517 0.663000 -0.086000
v 1.586999 0.661297 -0.086000
v 1.616414 0.656514 -0.086000
v 1.642353 0.649001 -0.086000
v 1.664967 0.639115 -0.086000
v 1.684436 0.627185 -0.086000
v 1.700941 0.613500 -0.086000
v 1.714653 0.598310 -0.086000
v 1.725708 0.581845 -0.086000
v 1.734205 0.564330 -0.086000
v 1.740214 0.546004 -0.086000
v 1.743785 0.527130 -0.086000
v 1.744977 0.507795 -0.086000
v 1.744358 0.492359 -0.086000
v 1.742500 0.477887 -0.086000
v 1.739441 0.464545 -0.086000
v 1.735202 0.452244 -0.086000
v 1.729778 0.440870 -0.086000
v 1.723129 0.430300 -0.086000
v 1.715182 0.420420 -0.086000
v 1.705840 0.411149 -0.086000
v 1.695005 0.402438 -0.086000
v 1.682591 0.394272 -0.086000
v 1.668534 0.386653 -0.086000
v 1.641000 0.374301 -0.086000
v 1.641000 0.344913 -0.086000
v 1.679479 0.335960 -0.086000
v 1.700636 0.328889 -0.086000
v 1.719925 0.320204 -0.086000
v 1.737306 0.310010 -0.086000
v 1.752753 0.298406 -0.086000
v 1.766251 0.285474 -0.086000
v 1.777790 0.271274 -0.086000
v 1.787356 0.255843 -0.086000
v 1.794921 0.239194 -0.086000
v 1.800433 0.221332 -0.086000
v 1.803816 0.202259 -0.086000
v 1.804966 0.182058 -0.086000
v 1.803775 0.163175 -0.086000
v 1.800119 0.144164 -0.086000
v 1.793863 0.125348 -0.086000
v 1.784875 0.107070 -0.086000
v 1.773005 0.089645 -0.086000
v 1.758065 0.073369 -0.086000
v 1.739827 0.058542 -0.086000
v 1.718028 0.045491 -0.086000
v 1.692393 0.034588 -0.086000
v 1.662657 0.026245 -0.086000
v 1.628587 0.020905 -0.086000
v 1.589537 0.019000 -0.086000
v 1.375000 0.019000 -0.086000
v 1.375000 0.663000 -0.086000
v 1.519307 0.371000 -0.086000
v 1.543526 0.371783 -0.086000
v 1.566198 0.374201 -0.086000
v 1.587083 0.378319 -0.086000
v 1.606200 0.384239 -0.086000
v 1.623520 0.392084 -0.086000
v 1.638929 0.401963 -0.086000
v 1.652227 0.413916 -0.086000
v 1.663179 0.427851 -0.086000
v 1.671614 0.443549 -0.086000
v 1.677498 0.460749 -0.086000
v 1.680922 0.479250 -0.086000
v 1.682027 0.498937 -0.086000
v 1.681303 0.513556 -0.086000
v 1.679011 0.527909 -0.086000
v 1.674938 0.541934 -0.086000
v 1.668883 0.555410 -0.086000
v 1.660691 0.568048 -0.086000
v 1.650298 0.579522 -0.086000
v 1.637731 0.589539 -0.086000
v 1.623075 0.597886 -0.086000
v 1.606397 0.604451 -0.086000
v 1.587708 0.609182 -0.086000
v 1.566952 0.612050 -0.086000
v 1.544400 0.613000 -0.086000
v 1.435000 0.613000 -0.086000
v 1.435000 0.371000 -0.086000
v 1.577404 0.069000 -0.086000
v 1.605751 0.070207 -0.086000
v 1.631415 0.073786 -0.086000
v 1.654186 0.079589 -0.086000
v 1.674192 0.087489 -0.086000
v 1.691497 0.097337 -0.086000
v 1.706116 0.108927 -0.086000
v 1.718052 0.121964 -0.086000
v 1.727358 0.136075 -0.086000
v 1.734172 0.150867 -0.086000
v 1.738713 0.165973 -0.086000
v 1.741241 0.181088 -0.086000
v 1.742033 0.196130 -0.086000
v 1.740864 0.213725 -0.086000
v 1.737248 0.230763 -0.086000
v 1.731099 0.246921 -0.086000
v 1.722390 0.261925 -0.086000
v 1.711185 0.275506 -0.086000
v 1.697613 0.287450 -0.086000
v 1.681824 0.297631 -0.086000
v 1.663933 0.305994 -0.086000
v 1.644006 0.312525 -0.086000
v 1.622059 0.317218 -0.086000
v 1.598075 0.320057 -0.086000
v 1.572348 0.321000 -0.086000
v 1.435000 0.321000 -0.086000
v 1.435000 0.069000 -0.086000
v 1.130000 0.019000 -0.086000
v 1.130000 0.550000 -0.086000
v 1.099836 0.550000 -0.086000
v 0.889836 0.286000 -0.086000
v 0.892164 0.286000 -0.086000
v 0.682164 0.550000 -0.086000
v 0.652000 0.550000 -0.086000
v 0.652000 0.019000 -0.086000
v 0.592000 0.019000 -0.086000
v 0.592000 0.663000 -0.086000
v 0.655919 0.663000 -0.086000
v 0.890967 0.371789 -0.086000
v 1.127056 0.663000 -0.086000
v 1.190000 0.663000 -0.086000
v 1.190000 0.019000 -0.086000
v 0.154000 0.613000 -0.086000
v 0.154000 0.369000 -0.086000
v 0.433000 0.369000 -0.086000
v 0.433000 0.319000 -0.086000
v 0.154000 0.319000 -0.086000
v 0.154000 0.069000 -0.086000
v 0.452000 0.069000 -0.086000
v 0.452000 0.019000 -0.086000
v 0.094000 0.019000 -0.086000
v 0.094000 0.663000 -0.086000
v 0.443000 0.663000 -0.086000
v 0.443000 0.613000 -0.086000
v 0.154000 0.613000 -0.086000
v 0.154000 0.613000 0.086000
v 0.154000 0.369000 -0.086000
v 0.154000 0.369000 0.086000
v 0.433000 0.369000 -0.086000
v 0.433000 0.369000 0.086000
v 0.433000 0.319000 -0.086000
v 0.433000 0.319000 0.086000
v 0.154000 0.319000 -0.086000
v 0.154000 0.319000 0.086000
v 0.154000 0.069000 -0.086000
v 0.154000 0.069000 0.086000
v 0.452000 0.069000 -0.086000
v 0.452000 0.069000 0.086000
v 0.452000 0.019000 -0.086000
v 0.452000 0.019000 0.086000
v 0.094000 0.019000 -0.086000
v 0.094000 0.019000 0.086000
v 0.094000 0.663000 -0.086000
v 0.094000 0.663000 0.086000
v 0.443000 0.663000 -0.086000
v 0.443000 0.663000 0.086000
v 0.443000 0.613000 -0.086000
v 0.443000 0.613000 0.086000
v 1.130000 0.019000 -0.086000
v 1.130000 0.019000 0.086000
v 1.130000 0.550000 -0.086000
v 1.130000 0.550000 0.086000
v 1.099836 0.550000 -0.086000
v 1.099836 0.550000 0.086000
v 0.889836 0.286000 -0.086000
v 0.889836 0.286000 0.086000
v 0.892164 0.286000 -0.086000
v 0.892164 0.286000 0.086000
v 0.682164 0.550000 -0.086000
v 0.682164 0.550000 0.086000
v 0.652000 0.550000 -0.086000
v 0.652000 0.550000 0.086000
v 0.652000 0.019000 -0.086000
v 0.652000 0.019000 0.086000
v 0.592000 0.019000 -0.086000
v 0.592000 0.019000 0.086000
v 0.592000 0.663000 -0.086000
v 0.592000 0.663000 0.086000
v 0.655919 0.663000 -0.086000
v 0.655919 0.663000 0.086000
v 0.890967 0.371789 -0.086000
v 0.890967 0.371789 0.086000
v 1.127056 0.663000 -0.086000
v 1.127056 0.663000 0.086000
v 1.190000 0.663000 -0.086000
v 1.190000 0.663000 0.086000
v 1.190000 0.019000 -0.086000
v 1.190000 0.019000 0.086000
v 1.553517 0.663000 -0.086000
v 1.553517 0.663000 0.086000
v 1.586999 0.661297 -0.086000
v 1.586999 0.661297 0.086000
v 1.616414 0.656514 -0.086000
v 1.616414 0.656514 0.086000
v 1.642353 0.649001 -0.086000
v 1.642353 0.649001 0.086000
v 1.664967 0.639115 -0.086000
v 1.664967 0.639115 0.086000
v 1.684436 0.627185 -0.086000
v 1.684436 0.627185 0.086000
v 1.700941 0.613500 -0.086000
v 1.700941 0.613500 0.086000
v 1.714653 0.598310 -0.086000
v 1.714653 0.598310 0.086000
v 1.725708 0.581845 -0.086000
v 1.725708 0.581845 0.086000
v 1.734205 0.564330 -0.086000
v 1.734205 0.564330 0.086000
v 1.740214 0.546004 -0.086000
v 1.740214 0.546004 0.086000
v 1.743785 0.527130 -0.086000
v 1.743785 0.527130 0.086000
v 1.744977 0.507795 -0.086000
v 1.744977 0.507795 0.086000
v 1.744358 0.492359 -0.086000
v 1.744358 0.492359 0.086000
v 1.742500 0.477887 -0.086000
v 1.742500 0.477887 0.086000
v 1.739441 0.464545 -0.086000
v 1.739441 0.464545 0.086000
v 1.735202 0.452244 -0.086000
v 1.735202 0.452244 0.086000
v 1.729778 0.440870 -0.086000
v 1.729778 0.440870 0.086000
v 1.723129 0.430300 -0.086000
v 1.723129 0.430300 0.086000
v 1.715182 0.420420 -0.086000
v 1.715182 0.420420 0.086000
v 1.705840 0.411149 -0.086000
v 1.705840 0.411149 0.086000
v 1.695005 0.402438 -0.086000
v 1.695005 0.402438 0.086000
v 1.682591 0.394272 -0.086000
v 1.682591 0.394272 0.086000
v 1.668534 0.386653 -0.086000
v 1.668534 0.386653 0.086000
v 1.641000 0.374301 -0.086000
v 1.641000 0.374301 0.086000
v 1.641000 0.344913 -0.086000
v 1.641000 0.344913 0.086000
v 1.679479 0.335960 -0.086000
v 1.679479 0.335960 0.086000
v 1.700636 0.328889 -0.086000
v 1.700636 0.328889 0.086000
v 1.719925 0.320204 -0.086000
v 1.719925 0.320204 0.086000
v 1.737306 0.310010 -0.086000
v 1.737306 0.310010 0.086000
v 1.752753 0.298406 -0.086000
v 1.752753 0.298406 0.086000
v 1.766251 0.285474 -0.086000
v 1.766251 0.285474 0.086000
v 1.777790 0.271274 -0.086000
v 1.777790 0.271274 0.086000
v 1.787356 0.255843 -0.086000
v 1.787356 0.255843 0.086000
v 1.794921 0.239194 -0.086000
v 1.794921 0.239194 0.086000
v 1.800433 0.221332 -0.086000
v 1.800433 0.221332 0.086000
v 1.803816 0.202259 -0.086000
v 1.803816 0.202259 0.086000
v 1.804966 0.182058 -0.086000
v 1.804966 0.182058 0.086000
v 1.803775 0.163175 -0.086000
v 1.803775 0.163175 0.086000
v 1.800119 0.144164 -0.086000
v 1.800119 0.144164 0.086000
v 1.793863 0.125348 -0.086000
v 1.793863 0.125348 0.086000
v 1.784875 0.107070 -0.086000
v 1.784875 0.107070 0.086000
v 1.773005 0.089645 -0.086000
v 1.773005 0.089645 0.086000
v 1.758065 0.073369 -0.086000
v 1.758065 0.073369 0.086000
v 1.739827 0.058542 -0.086000
v 1.739827 0.058542 0.086000
v 1.718028 0.045491 -0.086000
v 1.718028 0.045491 0.086000
v 1.692393 0.034588 -0.086000
v 1.692393 0.034588 0.086000
v 1.662657 0.026245 -0.086000
v 1.662657 0.026245 0.086000
v 1.628587 0.020905 -0.086000
v 1.628587 0.020905 0.086000
v 1.589537 0.019000 -0.086000
v 1.589537 0.019000 0.086000
v 1.375000 0.019000 -0.086000
v 1.375000 0.019000 0.086000
v 1.375000 0.663000 -0.086000
v 1.375000 0.663000 0.086000
v 1.519307 0.371000 -0.086000
v 1.519307 0.371000 0.086000
v 1.543526 0.371783 -0.086000
v 1.543526 0.371783 0.086000
v 1.566198 0.374201 -0.086000
v 1.566198 0.374201 0.086000
v 1.587083 0.378319 -0.086000
v 1.587083 0.378319 0.086000
v 1.606200 0.384239 -0.086000
v 1.606200 0.384239 0.086000
v 1.623520 0.392084 -0.086000
v 1.623520 0.392084 0.086000
v 1.638929 0.401963 -0.086000
v 1.638929 0.401963 0.086000
v 1.652227 0.413916 -0.086000
v 1.652227 0.413916 0.086000
v 1.663179 0.427851 -0.086000
v 1.663179 0.427851 0.086000
v 1.671614 0.443549 -0.086000
v 1.671614 0.443549 0.086000
v 1.677498 0.460749 -0.086000
v 1.677498 0.460749 0.086000
v 1.680922 0.479250 -0.086000
v 1.680922 0.479250 0.086000
v 1.682027 0.498937 -0.086000
v 1.682027 0.498937 0.086000
v 1.681303 0.513556 -0.086000
v 1.681303 0.513556 0.086000
v 1.679011 0.527909 -0.086000
v 1.679011 0.527909 0.086000
v 1.674938 0.541934 -0.086000
v 1.674938 0.541934 0.086000
v 1.668883 0.555410 -0.086000
v 1.668883 0.555410 0.086000
v 1.660691 0.568048 -0.086000
v 1.660691 0.568048 0.086000
v 1.650298 0.579522 -0.086000
v 1.650298 0.579522 0.086000
v 1.637731 0.589539 -0.086000
v 1.637731 0.589539 0.086000
v 1.623075 0.597886 -0.086000
v 1.623075 0.597886 0.086000
v 1.606397 0.604451 -0.086000
v 1.606397 0.604451 0.086000
v 1.587708 0.609182 -0.086000
v 1.587708 0.609182 0.086000
v 1.566952 0.612050 -0.086000
v 1.566952 0.612050 0.086000
v 1.544400 0.613000 -0.086000
v 1.544400 0.613000 0.086000
v 1.435000 0.613000 -0.086000
v 1.435000 0.613000 0.086000
v 1.435000 0.371000 -0.086000
v 1.435000 0.371000 0.086000
v 1.577404 0.069000 -0.086000
v 1.577404 0.069000 0.086000
v 1.605751 0.070207 -0.086000
v 1.605751 0.070207 0.086000
v 1.631415 0.073786 -0.086000
v 1.631415 0.073786 0.086000
v 1.654186 0.079589 -0.086000
v 1.654186 0.079589 0.086000
v 1.674192 0.087489 -0.086000
v 1.674192 0.087489 0.086000
v 1.691497 0.097337 -0.086000
v 1.691497 0.097337 0.086000
v 1.706116 0.108927 -0.086000
v 1.706116 0.108927 0.086000
v 1.718052 0.121964 -0.086000
v 1.718052 0.121964 0.086000
v 1.727358 0.136075 -0.086000
v 1.727358 0.136075 0.086000
v 1.734172 0.150867 -0.086000
v 1.734172 0.150867 0.086000
v 1.738713 0.165973 -0.086000
v 1.738713 0.165973 0.086000
v 1.741241 0.181088 -0.086000
v 1.741241 0.181088 0.086000
v 1.742033 0.196130 -0.086000
v 1.742033 0.196130 0.086000
v 1.740864 0.213725 -0.086000
v 1.740864 0.213725 0.086000
v 1.737248 0.230763 -0.086000
v 1.737248 0.230763 0.086000
v 1.731099 0.246921 -0.086000
v 1.731099 0.246921 0.086000
v 1.722390 0.261925 -0.086000
v 1.722390 0.261925 0.086000
v 1.711185 0.275506 -0.086000
v 1.711185 0.275506 0.086000
v 1.697613 0.287450 -0.086000
v 1.697613 0.287450 0.086000
v 1.681824 0.297631 -0.086000
v 1.681824 0.297631 0.086000
v 1.663933 0.305994 -0.086000
v 1.663933 0.305994 0.086000
v 1.644006 0.312525 -0.086000
v 1.644006 0.312525 0.086000
v 1.622059 0.317218 -0.086000
v 1.622059 0.317218 0.086000
v 1.598075 0.320057 -0.086000
v 1.598075 0.320057 0.086000
v 1.572348 0.321000 -0.086000
v 1.572348 0.321000 0.086000
v 1.435000 0.321000 -0.086000
v 1.435000 0.321000 0.086000
v 1.435000 0.069000 -0.086000
v 1.435000 0.069000 0.086000
v 1.998000 0.613000 -0.086000
v 1.998000 0.613000 0.086000
v 1.998000 0.369000 -0.086000
v 1.998000 0.369000 0.086000
v 2.277000 0.369000 -0.086000
v 2.277000 0.369000 0.086000
v 2.277000 0.319000 -0.086000
v 2.277000 0.319000 0.086000
v 1.998000 0.319000 -0.086000
v 1.998000 0.319000 0.086000
v 1.998000 0.069000 -0.086000
v 1.998000 0.069000 0.086000
v 2.296000 0.069000 -0.086000
v 2.296000 0.069000 0.086000
v 2.296000 0.019000 -0.086000
v 2.296000 0.019000 0.086000
v 1.938000 0.019000 -0.086000
v 1.938000 0.019000 0.086000
v 1.938000 0.663000 -0.086000
v 1.938000 0.663000 0.086000
v 2.287000 0.663000 -0.086000
v 2.287000 0.663000 0.086000
v 2.287000 0.613000 -0.086000
v 2.287000 0.613000 0.086000
v 2.624621 0.661556 -0.086000
v 2.624621 0.661556 0.086000
v 2.653814 0.657382 -0.086000
v 2.653814 0.657382 0.086000
v 2.680457 0.650611 -0.086000
v 2.680457 0.650611 0.086000
v 2.704463 0.641401 -0.086000
v 2.704463 0.641401 0.086000
v 2.725780 0.629906 -0.086000
v 2.725780 0.629906 0.086000
v 2.744385 0.616257 -0.086000
v 2.744385 0.616257 0.086000
v 2.760283 0.600541 -0.086000
v 2.760283 0.600541 0.086000
v 2.773477 0.582794 -0.086000
v 2.773477 0.582794 0.086000
v 2.783945 0.563000 -0.086000
v 2.783945 0.563000 0.086000
v 2.791611 0.541117 -0.086000
v 2.791611 0.541117 0.086000
v 2.796343 0.517110 -0.086000
v 2.796343 0.517110 0.086000
v 2.797974 0.490828 -0.086000
v 2.797974 0.490828 0.086000
v 2.797208 0.473381 -0.086000
v 2.797208 0.473381 0.086000
v 2.794926 0.456706 -0.086000
v 2.794926 0.456706 0.086000
v 2.791192 0.440990 -0.086000
v 2.791192 0.440990 0.086000
v 2.786052 0.426229 -0.086000
v 2.786052 0.426229 0.086000
v 2.779542 0.412408 -0.086000
v 2.779542 0.412408 0.086000
v 2.771683 0.399511 -0.086000
v 2.771683 0.399511 0.086000
v 2.762480 0.387526 -0.086000
v 2.762480 0.387526 0.086000
v 2.751926 0.376451 -0.086000
v 2.751926 0.376451 0.086000
v 2.740009 0.366296 -0.086000
v 2.740009 0.366296 0.086000
v 2.726716 0.357087 -0.086000
v 2.726716 0.357087 0.086000
v 2.712036 0.348862 -0.086000
v 2.712036 0.348862 0.086000
v 2.664956 0.327786 -0.086000
v 2.664956 0.327786 0.086000
v 2.706465 0.298197 -0.086000
v 2.706465 0.298197 0.086000
v 2.719646 0.287371 -0.086000
v 2.719646 0.287371 0.086000
v 2.732215 0.275623 -0.086000
v 2.732215 0.275623 0.086000
v 2.744310 0.262919 -0.086000
v 2.744310 0.262919 0.086000
v 2.756061 0.249232 -0.086000
v 2.756061 0.249232 0.086000
v 2.767590 0.234542 -0.086000
v 2.767590 0.234542 0.086000
v 2.779017 0.218836 -0.086000
v 2.779017 0.218836 0.086000
v 2.790461 0.202110 -0.086000
v 2.790461 0.202110 0.086000
v 2.802039 0.184364 -0.086000
v 2.802039 0.184364 0.086000
v 2.813874 0.165605 -0.086000
v 2.813874 0.165605 0.086000
v 2.826086 0.145838 -0.086000
v 2.826086 0.145838 0.086000
v 2.838832 0.125020 -0.086000
v 2.838832 0.125020 0.086000
v 2.845936 0.113604 -0.086000
v 2.845936 0.113604 0.086000
v 2.852698 0.102941 -0.086000
v 2.852698 0.102941 0.086000
v 2.859262 0.092808 -0.086000
v 2.859262 0.092808 0.086000
v 2.865767 0.082986 -0.086000
v 2.865767 0.082986 0.086000
v 2.872351 0.073256 -0.086000
v 2.872351 0.073256 0.086000
v 2.879154 0.063398 -0.086000
v 2.879154 0.063398 0.086000
v 2.886316 0.053190 -0.086000
v 2.886316 0.053190 0.086000
v 2.893981 0.042405 -0.086000
v 2.893981 0.042405 0.086000
v 2.902293 0.030813 -0.086000
v 2.902293 0.030813 0.086000
v 2.911402 0.018182 -0.086000
v 2.911402 0.018182 0.086000
v 2.921455 0.004279 -0.086000
v 2.921455 0.004279 0.086000
v 2.910806 0.019000 -0.086000
v 2.910806 0.019000 0.086000
v 2.841373 0.019000 -0.086000
v 2.841373 0.019000 0.086000
v 2.756912 0.150384 -0.086000
v 2.756912 0.150384 0.086000
v 2.735156 0.183230 -0.086000
v 2.735156 0.183230 0.086000
v 2.715075 0.211493 -0.086000
v 2.715075 0.211493 0.086000
v 2.696492 0.235472 -0.086000
v 2.696492 0.235472 0.086000
v 2.679154 0.255561 -0.086000
v 2.679154 0.255561 0.086000
v 2.662790 0.272142 -0.086000
v 2.662790 0.272142 0.086000
v 2.647124 0.285561 -0.086000
v 2.647124 0.285561 0.086000
v 2.631903 0.296114 -0.086000
v 2.631903 0.296114 0.086000
v 2.616954 0.304033 -0.086000
v 2.616954 0.304033 0.086000
v 2.602232 0.309536 -0.086000
v 2.602232 0.309536 0.086000
v 2.587807 0.312910 -0.086000
v 2.587807 0.312910 0.086000
v 2.573767 0.314568 -0.086000
v 2.573767 0.314568 0.086000
v 2.560305 0.315000 -0.086000
v 2.560305 0.315000 0.086000
v 2.500000 0.315000 -0.086000
v 2.500000 0.315000 0.086000
v 2.500000 0.019000 -0.086000
v 2.500000 0.019000 0.086000
v 2.440000 0.019000 -0.086000
v 2.440000 0.019000 0.086000
v 2.440000 0.663000 -0.086000
v 2.440000 0.663000 0.086000
v 2.592572 0.663000 -0.086000
v 2.592572 0.663000 0.086000
v 2.582421 0.365000 -0.086000
v 2.582421 0.365000 0.086000
v 2.608508 0.366156 -0.086000
v 2.608508 0.366156 0.086000
v 2.632293 0.369623 -0.086000
v 2.632293 0.369623 0.086000
v 2.653517 0.375303 -0.086000
v 2.653517 0.375303 0.086000
v 2.672258 0.383124 -0.086000
v 2.672258 0.383124 0.086000
v 2.688523 0.392978 -0.086000
v 2.688523 0.392978 0.086000
v 2.702263 0.404677 -0.086000
v 2.702263 0.404677 0.086000
v 2.713435 0.417927 -0.086000
v 2.713435 0.417927 0.086000
v 2.722075 0.432359 -0.086000
v 2.722075 0.432359 0.086000
v 2.728320 0.447598 -0.086000
v 2.728320 0.447598 0.086000
v 2.732391 0.463324 -0.086000
v 2.732391 0.463324 0.086000
v 2.734541 0.479287 -0.086000
v 2.734541 0.479287 0.086000
v 2.735019 0.495351 -0.086000
v 2.735019 0.495351 0.086000
v 2.733852 0.512829 -0.086000
v 2.733852 0.512829 0.086000
v 2.730781 0.529539 -0.086000
v 2.730781 0.529539 0.086000
v 2.725615 0.545359 -0.086000
v 2.725615 0.545359 0.086000
v 2.718192 0.560089 -0.086000
v 2.718192 0.560089 0.086000
v 2.708438 0.573457 -0.086000
v 2.708438 0.573457 0.086000
v 2.696400 0.585189 -0.086000
v 2.696400 0.585189 0.086000
v 2.682219 0.595094 -0.086000
v 2.682219 0.595094 0.086000
v 2.666043 0.603104 -0.086000
v 2.666043 0.603104 0.086000
v 2.647959 0.609246 -0.086000
v 2.647959 0.609246 0.086000
v 2.627971 0.613578 -0.086000
v 2.627971 0.613578 0.086000
v 2.606023 0.616156 -0.086000
v 2.606023 0.616156 0.086000
v 2.582338 0.617000 -0.086000
v 2.582338 0.617000 0.086000
v 2.500000 0.617000 -0.086000
v 2.500000 0.617000 0.086000
v 2.500000 0.365000 -0.086000
v 2.500000 0.365000 0.086000
vn -0.0000 -0.0000 1.0000
vn -0.0007 0.0000 1.0000
vn 0.0000 0.0000 -1.0000
vn 0.7071 -0.7071 0.0000
vn 0.7071 0.7071 0.0000
vn -0.7071 -0.7071 0.0000
vn -0.7071 0.7071 0.0000
vn 0.4344 -0.9007 0.0000
vn 0.9007 0.4344 0.0000
vn -0.9007 0.4344 0.0000
vn -0.4344 -0.9007 0.0000
vn 0.4312 0.9022 0.0000
vn 0.0011 1.0000 0.0000
vn -0.4302 0.9027 0.0000
vn 0.0254 0.9997 0.0000
vn 0.1058 0.9944 0.0000
vn 0.2197 0.9756 0.0000
vn 0.3401 0.9404 0.0000
vn 0.4626 0.8865 0.0000
vn 0.5818 0.8133 0.0000
vn 0.6921 0.7218 0.0000
vn 0.7883 0.6153 0.0000
vn 0.8671 0.4982 0.0000
vn 0.9271 0.3749 0.0000
vn 0.9684 0.2492 0.0000
vn 0.9923 0.1239 0.0000
vn 0.9999 0.0107 0.0000
vn 0.9965 -0.0838 0.0000
vn 0.9844 -0.1756 0.0000
vn 0.9614 -0.2750 0.0000
vn 0.9255 -0.3787 0.0000
vn 0.8760 -0.4822 0.0000
vn 0.8142 -0.5806 0.0000
vn 0.7429 -0.6693 0.0000
vn 0.6664 -0.7456 0.0000
vn 0.5887 -0.8083 0.0000
vn 0.5135 -0.8581 0.0000
vn 0.4432 -0.8964 0.0000
vn 0.8394 -0.5434 0.0000
vn 0.7831 0.6218 0.0000
vn 0.2721 0.9622 0.0000
vn 0.3642 0.9313 0.0000
vn 0.4589 0.8885 0.0000
vn 0.5541 0.8324 0.0000
vn 0.6474 0.7622 0.0000
vn 0.7353 0.6777 0.0000
vn 0.8147 0.5799 0.0000
vn 0.8820 0.4712 0.0000
vn 0.9348 0.3550 0.0000
vn 0.9719 0.2352 0.0000
vn 0.9933 0.1159 0.0000
vn 1.0000 -0.0031 0.0000
vn 0.9920 -0.1261 0.0000
vn 0.9675 -0.2527 0.0000
vn 0.9253 -0.3793 0.0000
vn 0.8640 -0.5034 0.0000
vn 0.7836 -0.6212 0.0000
vn 0.6856 -0.7280 0.0000
vn 0.5737 -0.8191 0.0000
vn 0.4536 -0.8912 0.0000
vn 0.3314 -0.9434 0.0000
vn 0.2129 -0.9771 0.0000
vn 0.1019 -0.9948 0.0000
vn 0.0244 -0.9997 0.0000
vn -0.0161 0.9998 0.0000
vn -0.0692 0.9976 0.0000
vn -0.1499 0.9887 0.0000
vn -0.2449 0.9695 0.0000
vn -0.3549 0.9349 0.0000
vn -0.4774 0.8787 0.0000
vn -0.6061 0.7954 0.0000
vn -0.7301 0.6833 0.0000
vn -0.8367 0.5477 0.0000
vn -0.9166 0.3998 0.0000
vn -0.9673 0.2535 0.0000
vn -0.9929 0.1192 0.0000
vn -1.0000 0.0033 0.0000
vn -0.9946 -0.1037 0.0000
vn -0.9758 -0.2187 0.0000
vn -0.9385 -0.3452 0.0000
vn -0.8782 -0.4783 0.0000
vn -0.7927 -0.6096 0.0000
vn -0.6844 -0.7290 0.0000
vn -0.5608 -0.8279 0.0000
vn -0.4317 -0.9020 0.0000
vn -0.3064 -0.9519 0.0000
vn -0.1914 -0.9815 0.0000
vn -0.0896 -0.9960 0.0000
vn -0.0210 -0.9998 0.0000
vn -0.0213 0.9998 0.0000
vn -0.0904 0.9959 0.0000
vn -0.1928 0.9812 0.0000
vn -0.3077 0.9515 0.0000
vn -0.4320 0.9019 0.0000
vn -0.5596 0.8288 0.0000
vn -0.6815 0.7317 0.0000
vn -0.7886 0.6148 0.0000
vn -0.8740 0.4859 0.0000
vn -0.9352 0.3540 0.0000
vn -0.9739 0.2268 0.0000
vn -0.9940 0.1090 0.0000
vn -1.0000 -0.0068 0.0000
vn -0.9905 -0.1373 0.0000
vn -0.9593 -0.2825 0.0000
vn -0.9027 -0.4302 0.0000
vn -0.8209 -0.5711 0.0000
vn -0.7183 -0.6957 0.0000
vn -0.6030 -0.7978 0.0000
vn -0.4838 -0.8751 0.0000
vn -0.3681 -0.9297 0.0000
vn -0.2606 -0.9654 0.0000
vn -0.1635 -0.9865 0.0000
vn -0.0771 -0.9970 0.0000
vn -0.0183 -0.9998 0.0000
vn 0.0934 0.9956 0.0000
vn 0.1942 0.9810 0.0000
vn 0.3027 0.9531 0.0000
vn 0.4172 0.9088 0.0000
vn 0.5343 0.8452 0.0000
vn 0.6490 0.7608 0.0000
vn 0.7549 0.6558 0.0000
vn 0.8457 0.5336 0.0000
vn 0.9164 0.4002 0.0000
vn 0.9649 0.2626 0.0000
vn 0.9918 0.1279 0.0000
vn 0.9999 0.0090 0.0000
vn 0.9959 -0.0898 0.0000
vn 0.9830 -0.1836 0.0000
vn 0.9599 -0.2803 0.0000
vn 0.9258 -0.3780 0.0000
vn 0.8806 -0.4739 0.0000
vn 0.8247 -0.5655 0.0000
vn 0.7596 -0.6504 0.0000
vn 0.6872 -0.7265 0.0000
vn 0.6098 -0.7925 0.0000
vn 0.5297 -0.8481 0.0000
vn 0.4491 -0.8934 0.0000
vn 0.9951 -0.0990 0.0000
vn 0.6079 0.7940 0.0000
vn 0.6591 0.7520 0.0000
vn 0.7038 0.7103 0.0000
vn 0.7417 0.6707 0.0000
vn 0.7729 0.6345 0.0000
vn 0.7978 0.6030 0.0000
vn 0.8170 0.5766 0.0000
vn 0.8314 0.5556 0.0000
vn 0.8416 0.5400 0.0000
vn 0.8483 0.5296 0.0000
vn 0.8518 0.5239 0.0000
vn 0.8509 0.5253 0.0000
vn 0.8467 0.5319 0.0000
vn 0.8419 0.5396 0.0000
vn 0.8365 0.5479 0.0000
vn 0.8310 0.5563 0.0000
vn 0.8256 0.5642 0.0000
vn 0.8208 0.5712 0.0000
vn 0.8169 0.5768 0.0000
vn 0.8139 0.5810 0.0000
vn 0.8119 0.5838 0.0000
vn 0.8107 0.5854 0.0000
vn 0.5855 -0.8107 0.0000
vn 0.5857 -0.8105 0.0000
vn -0.4549 -0.8905 0.0000
vn -0.4792 -0.8777 0.0000
vn -0.8375 -0.5465 0.0000
vn -0.8245 -0.5658 0.0000
vn -0.8030 -0.5960 0.0000
vn -0.7740 -0.6332 0.0000
vn -0.7348 -0.6783 0.0000
vn -0.6817 -0.7316 0.0000
vn -0.6110 -0.7917 0.0000
vn -0.5199 -0.8542 0.0000
vn -0.4100 -0.9121 0.0000
vn -0.2895 -0.9572 0.0000
vn -0.1728 -0.9850 0.0000
vn -0.0747 -0.9972 0.0000
vn -0.0160 -0.9998 0.0000
vn 0.0225 0.9997 0.0000
vn -0.0221 0.9997 0.0000
vn -0.0944 0.9955 0.0000
vn -0.2017 0.9794 0.0000
vn -0.3225 0.9465 0.0000
vn -0.4529 0.8915 0.0000
vn -0.5851 0.8109 0.0000
vn -0.7088 0.7054 0.0000
vn -0.8139 0.5810 0.0000
vn -0.8942 0.4477 0.0000
vn -0.9489 0.3156 0.0000
vn -0.9813 0.1924 0.0000
vn -0.9966 0.0817 0.0000
vn -0.9998 -0.0184 0.0000
vn -0.9923 -0.1239 0.0000
vn -0.9692 -0.2461 0.0000
vn -0.9244 -0.3813 0.0000
vn -0.8533 -0.5214 0.0000
vn -0.7555 -0.6551 0.0000
vn -0.6374 -0.7705 0.0000
vn -0.5096 -0.8604 0.0000
vn -0.3835 -0.9235 0.0000
vn -0.2671 -0.9637 0.0000
vn -0.1644 -0.9864 0.0000
vn -0.0762 -0.9971 0.0000
vn -0.0178 -0.9998 0.0000
usemtl None
s off
f 65//1 93//1 66//1
f 93//1 67//1 66//1
f 93//1 1//1 67//1
f 93//1 2//1 1//1
f 93//1 3//1 2//1
f 93//1 4//1 3//1
f 93//1 5//1 4//1
f 93//1 92//1 5//1
f 92//1 6//1 5//1
f 65//1 94//1 93//1
f 91//1 6//1 92//1
f 91//1 7//1 6//1
f 90//1 7//1 91//1
f 89//1 7//1 90//1
f 88//1 7//1 89//1
f 87//1 7//1 88//1
f 87//1 8//1 7//1
f 86//1 8//1 87//1
f 85//1 8//1 86//1
f 85//1 9//1 8//1
f 84//1 9//1 85//1
f 84//1 10//1 9//1
f 83//1 10//1 84//1
f 82//1 10//1 83//1
f 82//1 11//1 10//1
f 81//1 11//1 82//1
f 81//1 12//1 11//1
f 80//1 12//1 81//1
f 79//1 12//1 80//1
f 79//1 13//1 12//1
f 78//1 13//1 79//1
f 78//1 14//1 13//1
f 77//1 14//1 78//1
f 77//1 15//1 14//1
f 76//1 15//1 77//1
f 76//1 16//1 15//1
f 75//1 16//1 76//1
f 75//1 17//1 16//1
f 74//1 17//1 75//1
f 74//1 18//1 17//1
f 73//1 18//1 74//1
f 73//1 19//1 18//1
f 72//1 19//1 73//1
f 72//1 20//1 19//1
f 71//1 20//1 72//1
f 71//1 21//1 20//1
f 70//1 21//1 71//1
f 69//1 21//1 70//1
f 69//1 22//1 21//1
f 68//1 22//1 69//1
f 65//1 63//1 94//1
f 63//1 68//1 94//1
f 63//1 22//1 68//1
f 63//1 23//1 22//1
f 63//1 24//1 23//1
f 63//1 62//1 24//1
f 62//1 61//1 24//1
f 61//1 60//1 24//1
f 60//1 25//1 24//1
f 65//1 64//1 63//1
f 59//1 25//1 60//1
f 58//1 25//1 59//1
f 57//1 25//1 58//1
f 57//1 26//1 25//1
f 56//1 26//1 57//1
f 56//1 27//1 26//1
f 55//1 27//1 56//1
f 55//1 28//1 27//1
f 54//1 28//1 55//1
f 54//1 29//1 28//1
f 53//1 29//1 54//1
f 53//1 30//1 29//1
f 52//1 30//1 53//1
f 52//1 31//1 30//1
f 52//1 32//1 31//1
f 51//1 32//1 52//1
f 51//1 33//1 32//1
f 51//1 34//1 33//1
f 50//1 34//1 51//1
f 50//1 35//1 34//1
f 49//1 35//1 50//1
f 49//1 36//1 35//1
f 49//1 37//1 36//1
f 49//1 38//1 37//1
f 49//1 39//1 38//1
f 49//1 40//1 39//1
f 49//1 41//1 40//1
f 49//1 42//1 41//1
f 49//1 43//1 42//1
f 49//1 44//1 43//1
f 49//1 45//1 44//1
f 49//1 48//1 45//1
f 48//1 46//1 45//1
f 47//2 46//2 48//2
f 103//1 95//1 104//1
f 95//1 105//1 104//1
f 95//1 106//1 105//1
f 103//1 96//1 95//1
f 103//1 99//1 96//1
f 99//1 97//1 96//1
f 99//1 98//1 97//1
f 103//1 100//1 99//1
f 103//1 101//1 100//1
f 103//1 102//1 101//1
f 157//1 184//1 158//1
f 184//1 107//1 158//1
f 184//1 108//1 107//1
f 184//1 109//1 108//1
f 184//1 110//1 109//1
f 184//1 111//1 110//1
f 184//1 112//1 111//1
f 184//1 113//1 112//1
f 184//1 183//1 113//1
f 183//1 182//1 113//1
f 182//1 114//1 113//1
f 157//1 185//1 184//1
f 181//1 114//1 182//1
f 180//1 114//1 181//1
f 179//1 114//1 180//1
f 179//1 115//1 114//1
f 178//1 115//1 179//1
f 177//1 115//1 178//1
f 177//1 116//1 115//1
f 176//1 116//1 177//1
f 175//1 116//1 176//1
f 175//1 117//1 116//1
f 174//1 117//1 175//1
f 174//1 118//1 117//1
f 173//1 118//1 174//1
f 172//1 118//1 173//1
f 172//1 119//1 118//1
f 171//1 119//1 172//1
f 171//1 120//1 119//1
f 170//1 120//1 171//1
f 170//1 121//1 120//1
f 169//1 121//1 170//1
f 169//1 122//1 121//1
f 169//1 123//1 122//1
f 168//1 123//1 169//1
f 168//1 124//1 123//1
f 167//1 124//1 168//1
f 167//1 125//1 124//1
f 167//1 126//1 125//1
f 166//1 126//1 167//1
f 166//1 127//1 126//1
f 165//1 127//1 166//1
f 165//1 128//1 127//1
f 165//1 129//1 128//1
f 164//1 129//1 165//1
f 164//1 130//1 129//1
f 163//1 130//1 164//1
f 163//1 131//1 130//1
f 162//1 131//1 163//1
f 161//1 131//1 162//1
f 161//1 132//1 131//1
f 160//1 132//1 161//1
f 159//1 132//1 160//1
f 157//1 211//1 185//1
f 211//1 159//1 185//1
f 211//1 132//1 159//1
f 211//1 133//1 132//1
f 211//1 134//1 133//1
f 211//1 210//1 134//1
f 210//1 135//1 134//1
f 157//1 212//1 211//1
f 209//1 135//1 210//1
f 209//1 136//1 135//1
f 208//1 136//1 209//1
f 207//1 136//1 208//1
f 206//1 136//1 207//1
f 206//1 137//1 136//1
f 205//1 137//1 206//1
f 205//1 138//1 137//1
f 204//1 138//1 205//1
f 203//1 138//1 204//1
f 203//1 139//1 138//1
f 202//1 139//1 203//1
f 202//1 140//1 139//1
f 201//1 140//1 202//1
f 201//1 141//1 140//1
f 200//1 141//1 201//1
f 200//1 142//1 141//1
f 199//1 142//1 200//1
f 199//1 143//1 142//1
f 198//1 143//1 199//1
f 198//1 144//1 143//1
f 197//1 144//1 198//1
f 197//1 145//1 144//1
f 196//1 145//1 197//1
f 195//1 145//1 196//1
f 195//1 146//1 145//1
f 194//1 146//1 195//1
f 194//1 147//1 146//1
f 193//1 147//1 194//1
f 193//1 148//1 147//1
f 192//1 148//1 193//1
f 191//1 148//1 192//1
f 191//1 149//1 148//1
f 190//1 149//1 191//1
f 190//1 150//1 149//1
f 189//1 150//1 190//1
f 188//1 150//1 189//1
f 187//1 150//1 188//1
f 187//1 151//1 150//1
f 186//1 151//1 187//1
f 157//1 186//1 212//1
f 157//1 151//1 186//1
f 157//1 152//1 151//1
f 157//1 153//1 152//1
f 157//1 154//1 153//1
f 157//1 155//1 154//1
f 157//1 156//1 155//1
f 221//1 223//1 222//1
f 221//1 219//1 223//1
f 219//1 218//1 223//1
f 218//1 224//1 223//1
f 224//1 226//1 225//1
f 224//1 215//1 226//1
f 215//1 214//1 226//1
f 214//1 227//1 226//1
f 221//1 220//1 219//1
f 217//1 224//1 218//1
f 224//1 216//1 215//1
f 213//1 227//1 214//1
f 216//1 217//1 224//1
f 236//1 228//1 237//1
f 228//1 238//1 237//1
f 228//1 239//1 238//1
f 236//1 229//1 228//1
f 236//1 232//1 229//1
f 232//1 230//1 229//1
f 232//1 231//1 230//1
f 236//1 233//1 232//1
f 236//1 234//1 233//1
f 236//1 235//1 234//1
f 332//3 304//3 305//3
f 306//3 332//3 305//3
f 240//3 332//3 306//3
f 241//3 332//3 240//3
f 242//3 332//3 241//3
f 243//3 332//3 242//3
f 244//3 332//3 243//3
f 331//3 332//3 244//3
f 245//3 331//3 244//3
f 333//3 304//3 332//3
f 245//3 330//3 331//3
f 246//3 330//3 245//3
f 246//3 329//3 330//3
f 246//3 328//3 329//3
f 246//3 327//3 328//3
f 246//3 326//3 327//3
f 247//3 326//3 246//3
f 247//3 325//3 326//3
f 247//3 324//3 325//3
f 248//3 324//3 247//3
f 248//3 323//3 324//3
f 249//3 323//3 248//3
f 249//3 322//3 323//3
f 249//3 321//3 322//3
f 250//3 321//3 249//3
f 250//3 320//3 321//3
f 251//3 320//3 250//3
f 251//3 319//3 320//3
f 251//3 318//3 319//3
f 252//3 318//3 251//3
f 252//3 317//3 318//3
f 253//3 317//3 252//3
f 253//3 316//3 317//3
f 254//3 316//3 253//3
f 254//3 315//3 316//3
f 255//3 315//3 254//3
f 255//3 314//3 315//3
f 256//3 314//3 255//3
f 256//3 313//3 314//3
f 257//3 313//3 256//3
f 257//3 312//3 313//3
f 258//3 312//3 257//3
f 258//3 311//3 312//3
f 259//3 311//3 258//3
f 259//3 310//3 311//3
f 260//3 310//3 259//3
f 260//3 309//3 310//3
f 260//3 308//3 309//3
f 261//3 308//3 260//3
f 261//3 307//3 308//3
f 302//3 304//3 333//3
f 307//3 302//3 333//3
f 261//3 302//3 307//3
f 262//3 302//3 261//3
f 263//3 302//3 262//3
f 301//3 302//3 263//3
f 300//3 301//3 263//3
f 299//3 300//3 263//3
f 264//3 299//3 263//3
f 303//3 304//3 302//3
f 264//3 298//3 299//3
f 264//3 297//3 298//3
f 264//3 296//3 297//3
f 265//3 296//3 264//3
f 265//3 295//3 296//3
f 266//3 295//3 265//3
f 266//3 294//3 295//3
f 267//3 294//3 266//3
f 267//3 293//3 294//3
f 268//3 293//3 267//3
f 268//3 292//3 293//3
f 269//3 292//3 268//3
f 269//3 291//3 292//3
f 270//3 291//3 269//3
f 271//3 291//3 270//3
f 271//3 290//3 291//3
f 272//3 290//3 271//3
f 273//3 290//3 272//3
f 273//3 289//3 290//3
f 274//3 289//3 273//3
f 274//3 288//3 289//3
f 275//3 288//3 274//3
f 276//3 288//3 275//3
f 277//3 288//3 276//3
f 278//3 288//3 277//3
f 279//3 288//3 278//3
f 280//3 288//3 279//3
f 281//3 288//3 280//3
f 282//3 288//3 281//3
f 283//3 288//3 282//3
f 284//3 288//3 283//3
f 287//3 288//3 284//3
f 285//3 287//3 284//3
f 285//3 286//3 287//3
f 334//3 342//3 343//3
f 344//3 334//3 343//3
f 345//3 334//3 344//3
f 335//3 342//3 334//3
f 338//3 342//3 335//3
f 336//3 338//3 335//3
f 337//3 338//3 336//3
f 339//3 342//3 338//3
f 340//3 342//3 339//3
f 341//3 342//3 340//3
f 423//3 396//3 397//3
f 346//3 423//3 397//3
f 347//3 423//3 346//3
f 348//3 423//3 347//3
f 349//3 423//3 348//3
f 350//3 423//3 349//3
f 351//3 423//3 350//3
f 352//3 423//3 351//3
f 422//3 423//3 352//3
f 421//3 422//3 352//3
f 353//3 421//3 352//3
f 424//3 396//3 423//3
f 353//3 420//3 421//3
f 353//3 419//3 420//3
f 353//3 418//3 419//3
f 354//3 418//3 353//3
f 354//3 417//3 418//3
f 354//3 416//3 417//3
f 355//3 416//3 354//3
f 355//3 415//3 416//3
f 355//3 414//3 415//3
f 356//3 414//3 355//3
f 356//3 413//3 414//3
f 357//3 413//3 356//3
f 357//3 412//3 413//3
f 357//3 411//3 412//3
f 358//3 411//3 357//3
f 358//3 410//3 411//3
f 359//3 410//3 358//3
f 359//3 409//3 410//3
f 360//3 409//3 359//3
f 360//3 408//3 409//3
f 361//3 408//3 360//3
f 362//3 408//3 361//3
f 362//3 407//3 408//3
f 363//3 407//3 362//3
f 363//3 406//3 407//3
f 364//3 406//3 363//3
f 365//3 406//3 364//3
f 365//3 405//3 406//3
f 366//3 405//3 365//3
f 366//3 404//3 405//3
f 367//3 404//3 366//3
f 368//3 404//3 367//3
f 368//3 403//3 404//3
f 369//3 403//3 368//3
f 369//3 402//3 403//3
f 370//3 402//3 369//3
f 370//3 401//3 402//3
f 370//3 400//3 401//3
f 371//3 400//3 370//3
f 371//3 399//3 400//3
f 371//3 398//3 399//3
f 450//3 396//3 424//3
f 398//3 450//3 424//3
f 371//3 450//3 398//3
f 372//3 450//3 371//3
f 373//3 450//3 372//3
f 449//3 450//3 373//3
f 374//3 449//3 373//3
f 451//3 396//3 450//3
f 374//3 448//3 449//3
f 375//3 448//3 374//3
f 375//3 447//3 448//3
f 375//3 446//3 447//3
f 375//3 445//3 446//3
f 376//3 445//3 375//3
f 376//3 444//3 445//3
f 377//3 444//3 376//3
f 377//3 443//3 444//3
f 377//3 442//3 443//3
f 378//3 442//3 377//3
f 378//3 441//3 442//3
f 379//3 441//3 378//3
f 379//3 440//3 441//3
f 380//3 440//3 379//3
f 380//3 439//3 440//3
f 381//3 439//3 380//3
f 381//3 438//3 439//3
f 382//3 438//3 381//3
f 382//3 437//3 438//3
f 383//3 437//3 382//3
f 383//3 436//3 437//3
f 384//3 436//3 383//3
f 384//3 435//3 436//3
f 384//3 434//3 435//3
f 385//3 434//3 384//3
f 385//3 433//3 434//3
f 386//3 433//3 385//3
f 386//3 432//3 433//3
f 387//3 432//3 386//3
f 387//3 431//3 432//3
f 387//3 430//3 431//3
f 388//3 430//3 387//3
f 388//3 429//3 430//3
f 389//3 429//3 388//3
f 389//3 428//3 429//3
f 389//3 427//3 428//3
f 389//3 426//3 427//3
f 390//3 426//3 389//3
f 390//3 425//3 426//3
f 425//3 396//3 451//3
f 390//3 396//3 425//3
f 391//3 396//3 390//3
f 392//3 396//3 391//3
f 393//3 396//3 392//3
f 394//3 396//3 393//3
f 395//3 396//3 394//3
f 462//3 460//3 461//3
f 458//3 460//3 462//3
f 457//3 458//3 462//3
f 463//3 457//3 462//3
f 465//3 463//3 464//3
f 454//3 463//3 465//3
f 453//3 454//3 465//3
f 466//3 453//3 465//3
f 459//3 460//3 458//3
f 463//3 456//3 457//3
f 455//3 463//3 454//3
f 466//3 452//3 453//3
f 456//3 455//3 463//3
f 467//3 475//3 476//3
f 477//3 467//3 476//3
f 478//3 467//3 477//3
f 468//3 475//3 467//3
f 471//3 475//3 468//3
f 469//3 471//3 468//3
f 470//3 471//3 469//3
f 472//3 475//3 471//3
f 473//3 475//3 472//3
f 474//3 475//3 473//3
s 1
f 480//4 482//5 481//5 479//4
f 482//5 484//5 483//5 481//5
f 484//5 486//4 485//4 483//5
f 486//4 488//4 487//4 485//4
f 488//4 490//5 489//5 487//4
f 490//5 492//5 491//5 489//5
f 492//5 494//4 493//4 491//5
f 494//4 496//6 495//6 493//4
f 496//6 498//7 497//7 495//6
f 498//7 500//5 499//5 497//7
f 500//5 502//4 501//4 499//5
f 502//4 480//4 479//4 501//4
f 504//6 506//6 505//6 503//6
f 506//6 508//8 507//8 505//6
f 508//8 510//9 509//9 507//8
f 510//9 512//10 511//10 509//9
f 512//10 514//11 513//11 511//10
f 514//11 516//4 515//4 513//11
f 516//4 518//4 517//4 515//4
f 518//4 520//6 519//6 517//4
f 520//6 522//7 521//7 519//6
f 522//7 524//12 523//12 521//7
f 524//12 526//13 525//13 523//12
f 526//13 528//14 527//14 525//13
f 528//14 530//5 529//5 527//14
f 530//5 532//4 531//4 529//5
f 532//4 504//6 503//6 531//4
f 534//15 536//16 535//16 533//15
f 536//16 538//17 537//17 535//16
f 538//17 540//18 539//18 537//17
f 540//18 542//19 541//19 539//18
f 542//19 544//20 543//20 541//19
f 544//20 546//21 545//21 543//20
f 546//21 548//22 547//22 545//21
f 548//22 550//23 549//23 547//22
f 550//23 552//24 551//24 549//23
f 552//24 554//25 553//25 551//24
f 554//25 556//26 555//26 553//25
f 556//26 558//27 557//27 555//26
f 558//27 560//28 559//28 557//27
f 560//28 562//29 561//29 559//28
f 562//29 564//30 563//30 561//29
f 564//30 566//31 565//31 563//30
f 566//31 568//32 567//32 565//31
f 568//32 570//33 569//33 567//32
f 570//33 572//34 571//34 569//33
f 572//34 574//35 573//35 571//34
f 574//35 576//36 575//36 573//35
f 576//36 578//37 577//37 575//36
f 578//37 580//38 579//38 577//37
f 580//38 582//39 581//39 579//38
f 582//39 584//40 583//40 581//39
f 584//40 586//41 585//41 583//40
f 586//41 588//42 587//42 585//41
f 588//42 590//43 589//43 587//42
f 590//43 592//44 591//44 589//43
f 592//44 594//45 593//45 591//44
f 594//45 596//46 595//46 593//45
f 596//46 598//47 597//47 595//46
f 598//47 600//48 599//48 597//47
f 600//48 602//49 601//49 599//48
f 602//49 604//50 603//50 601//49
f 604//50 606//51 605//51 603//50
f 606//51 608//52 607//52 605//51
f 608//52 610//53 609//53 607//52
f 610//53 612//54 611//54 609//53
f 612//54 614//55 613//55 611//54
f 614//55 616//56 615//56 613//55
f 616//56 618//57 617//57 615//56
f 618//57 620//58 619//58 617//57
f 620//58 622//59 621//59 619//58
f 622//59 624//60 623//60 621//59
f 624//60 626//61 625//61 623//60
f 626//61 628//62 627//62 625//61
f 628//62 630//63 629//63 627//62
f 630//63 632//64 631//64 629//63
f 632//64 634//6 633//6 631//64
f 634//6 636//7 635//7 633//6
f 636//7 534//15 533//15 635//7
f 638//65 640//66 639//66 637//65
f 640//66 642//67 641//67 639//66
f 642//67 644//68 643//68 641//67
f 644//68 646//69 645//69 643//68
f 646//69 648//70 647//70 645//69
f 648//70 650//71 649//71 647//70
f 650//71 652//72 651//72 649//71
f 652//72 654//73 653//73 651//72
f 654//73 656//74 655//74 653//73
f 656//74 658//75 657//75 655//74
f 658//75 660//76 659//76 657//75
f 660//76 662//77 661//77 659//76
f 662//77 664//78 663//78 661//77
f 664//78 666//79 665//79 663//78
f 666//79 668//80 667//80 665//79
f 668//80 670//81 669//81 667//80
f 670//81 672//82 671//82 669//81
f 672//82 674//83 673//83 671//82
f 674//83 676//84 675//84 673//83
f 676//84 678//85 677//85 675//84
f 678//85 680//86 679//86 677//85
f 680//86 682//87 681//87 679//86
f 682//87 684//88 683//88 681//87
f 684//88 686//89 685//89 683//88
f 686//89 688//4 687//4 685//89
f 688//4 690//5 689//5 687//4
f 690//5 638//65 637//65 689//5
f 692//90 694//91 693//91 691//90
f 694//91 696//92 695//92 693//91
f 696//92 698//93 697//93 695//92
f 698//93 700//94 699//94 697//93
f 700//94 702//95 701//95 699//94
f 702//95 704//96 703//96 701//95
f 704//96 706//97 705//97 703//96
f 706//97 708//98 707//98 705//97
f 708//98 710//99 709//99 707//98
f 710//99 712//100 711//100 709//99
f 712//100 714//101 713//101 711//100
f 714//101 716//102 715//102 713//101
f 716//102 718//103 717//103 715//102
f 718//103 720//104 719//104 717//103
f 720//104 722//105 721//105 719//104
f 722//105 724//106 723//106 721//105
f 724//106 726//107 725//107 723//106
f 726//107 728//108 727//108 725//107
f 728//108 730//109 729//109 727//108
f 730//109 732//110 731//110 729//109
f 732//110 734//111 733//111 731//110
f 734//111 736//112 735//112 733//111
f 736//112 738//113 737//113 735//112
f 738//113 740//114 739//114 737//113
f 740//114 742//4 741//4 739//114
f 742//4 744//5 743//5 741//4
f 744//5 692//90 691//90 743//5
f 746//4 748//5 747//5 745//4
f 748//5 750//5 749//5 747//5
f 750//5 752//4 751//4 749//5
f 752//4 754//4 753//4 751//4
f 754//4 756//5 755//5 753//4
f 756//5 758//5 757//5 755//5
f 758//5 760//4 759//4 757//5
f 760//4 762//6 761//6 759//4
f 762//6 764//7 763//7 761//6
f 764//7 766//5 765//5 763//7
f 766//5 768//4 767//4 765//5
f 768//4 746//4 745//4 767//4
f 770//115 772//116 771//116 769//115
f 772//116 774//117 773//117 771//116
f 774//117 776//118 775//118 773//117
f 776//118 778//119 777//119 775//118
f 778//119 780//120 779//120 777//119
f 780//120 782//121 781//121 779//120
f 782//121 784//122 783//122 781//121
f 784//122 786//123 785//123 783//122
f 786//123 788//124 787//124 785//123
f 788//124 790//125 789//125 787//124
f 790//125 792//126 791//126 789//125
f 792//126 794//127 793//127 791//126
f 794//127 796//128 795//128 793//127
f 796//128 798//129 797//129 795//128
f 798//129 800//130 799//130 797//129
f 800//130 802//131 801//131 799//130
f 802//131 804//132 803//132 801//131
f 804//132 806//133 805//133 803//132
f 806//133 808//134 807//134 805//133
f 808//134 810//135 809//135 807//134
f 810//135 812//136 811//136 809//135
f 812//136 814//137 813//137 811//136
f 814//137 816//138 815//138 813//137
f 816//138 818//139 817//139 815//138
f 818//139 820//140 819//140 817//139
f 820//140 822//141 821//141 819//140
f 822//141 824//142 823//142 821//141
f 824//142 826//143 825//143 823//142
f 826//143 828//144 827//144 825//143
f 828//144 830//145 829//145 827//144
f 830//145 832//146 831//146 829//145
f 832//146 834//147 833//147 831//146
f 834//147 836//148 835//148 833//147
f 836//148 838//149 837//149 835//148
f 838//149 840//150 839//150 837//149
f 840//150 842//151 841//151 839//150
f 842//151 844//152 843//152 841//151
f 844//152 846//153 845//153 843//152
f 846//153 848//154 847//154 845//153
f 848//154 850//155 849//155 847//154
f 850//155 852//156 851//156 849//155
f 852//156 854//157 853//157 851//156
f 854//157 856//158 855//158 853//157
f 856//158 858//159 857//159 855//158
f 858//159 860//160 859//160 857//159
f 860//160 862//161 861//162 859//160
f 862//161 864//163 863//163 861//162
f 864//163 866//164 865//164 863//163
f 866//164 868//165 867//165 865//164
f 868//165 870//166 869//166 867//165
f 870//166 872//167 871//167 869//166
f 872//167 874//168 873//168 871//167
f 874//168 876//169 875//169 873//168
f 876//169 878//170 877//170 875//169
f 878//170 880//171 879//171 877//170
f 880//171 882//172 881//172 879//171
f 882//172 884//173 883//173 881//172
f 884//173 886//174 885//174 883//173
f 886//174 888//175 887//175 885//174
f 888//175 890//176 889//176 887//175
f 890//176 892//177 891//177 889//176
f 892//177 894//4 893//4 891//177
f 894//4 896//4 895//4 893//4
f 896//4 898//6 897//6 895//4
f 898//6 900//7 899//7 897//6
f 900//7 902//178 901//178 899//7
f 902//178 770//115 769//115 901//178
f 904//179 906//180 905//180 903//179
f 906//180 908//181 907//181 905//180
f 908//181 910//182 909//182 907//181
f 910//182 912//183 911//183 909//182
f 912//183 914//184 913//184 911//183
f 914//184 916//185 915//185 913//184
f 916//185 918//186 917//186 915//185
f 918//186 920//187 919//187 917//186
f 920//187 922//188 921//188 919//187
f 922//188 924//189 923//189 921//188
f 924//189 926//190 925//190 923//189
f 926//190 928//191 927//191 925//190
f 928//191 930//192 929//192 927//191
f 930//192 932//193 931//193 929//192
f 932//193 934//194 933//194 931//193
f 934//194 936//195 935//195 933//194
f 936//195 938//196 937//196 935//195
f 938//196 940//197 939//197 937//196
f 940//197 942//198 941//198 939//197
f 942//198 944//199 943//199 941//198
f 944//199 946//200 945//200 943//199
f 946//200 948//201 947//201 945//200
f 948//201 950//202 949//202 947//201
f 950//202 952//203 951//203 949//202
f 952//203 954//4 953//4 951//203
f 954//4 956//5 955//5 953//4
f 956//5 904//179 903//179 955//5
